{
  "stats": {
    "suites": 1,
    "tests": 1,
    "passes": 1,
    "pending": 0,
    "failures": 0,
    "start": "2023-09-11T02:17:32.589Z",
    "end": "2023-09-11T02:17:35.440Z",
    "duration": 2851,
    "testsRegistered": 1,
    "passPercent": 100,
    "pendingPercent": 0,
    "other": 0,
    "hasOther": false,
    "skipped": 0,
    "hasSkipped": false
  },
  "results": [
    {
      "uuid": "70305bea-7c21-4477-ad06-28948c98b403",
      "title": "",
      "fullFile": "cypress/e2e/uitest.cy.js",
      "file": "cypress/e2e/uitest.cy.js",
      "beforeHooks": [],
      "afterHooks": [],
      "tests": [],
      "suites": [
        {
          "uuid": "dca92e01-5019-46b2-94f3-0f18baf615c7",
          "title": "UI Test",
          "fullFile": "",
          "file": "",
          "beforeHooks": [],
          "afterHooks": [],
          "tests": [
            {
              "title": "should verify sorting functionality",
              "fullTitle": "UI Test should verify sorting functionality",
              "timedOut": null,
              "duration": 1700,
              "state": "passed",
              "speed": "fast",
              "pass": true,
              "fail": false,
              "pending": false,
              "context": null,
              "code": "cy.visit('https://www.saucedemo.com');\n// Step 2: Log in\ncy.get('#user-name').type('standard_user');\ncy.get('#password').type('secret_sauce');\ncy.get('#login-button').click();\n// Step 3: Verify items are sorted by Name (A -> Z)\ncy.get('.product_sort_container').select('az'); // Select A -> Z\ncy.get('.inventory_item_name').then($items => {\n  const itemNames = $items.map((index, element) => Cypress.$(element).text()).get();\n  expect(itemNames).to.deep.equal(itemNames.slice().sort());\n});\n// Step 4: Change sorting to Name (Z -> A)\ncy.get('.product_sort_container').select('za'); // Select Z -> A\n// Step 5: Verify items are sorted correctly\ncy.get('.inventory_item_name').then($items => {\n  const itemNames = $items.map((index, element) => Cypress.$(element).text()).get();\n  expect(itemNames).to.deep.equal(itemNames.slice().sort().reverse());\n});",
              "err": {},
              "uuid": "35f6e476-0171-4238-a896-54e8006f8457",
              "parentUUID": "dca92e01-5019-46b2-94f3-0f18baf615c7",
              "isHook": false,
              "skipped": false
            }
          ],
          "suites": [],
          "passes": [
            "35f6e476-0171-4238-a896-54e8006f8457"
          ],
          "failures": [],
          "pending": [],
          "skipped": [],
          "duration": 1700,
          "root": false,
          "rootEmpty": false,
          "_timeout": 2000
        }
      ],
      "passes": [],
      "failures": [],
      "pending": [],
      "skipped": [],
      "duration": 0,
      "root": true,
      "rootEmpty": true,
      "_timeout": 2000
    }
  ],
  "meta": {
    "mocha": {
      "version": "7.0.1"
    },
    "mochawesome": {
      "options": {
        "quiet": false,
        "reportFilename": "mochawesome",
        "saveHtml": true,
        "saveJson": true,
        "consoleReporter": "spec",
        "useInlineDiffs": false,
        "code": true
      },
      "version": "7.1.3"
    },
    "marge": {
      "options": {
        "reportDir": "mochawesome-report",
        "overwrite": false,
        "html": true,
        "json": true
      },
      "version": "6.2.0"
    }
  }
}